INFO     log:requests.py:12 接口地址>>>>>:http://admin.5istudy.online/login/
INFO     log:requests.py:18 接口参数>>>>>:{'username': 15819749552, 'password': 123456}
INFO     log:request_untils.py:9 接口返回内容>>>:{"token": "eyJ0eXAiOiJKV1QiLCJhbGciOiJIUzI1NiJ9.eyJ1c2VyX2lkIjoxNjg4OTIsInVzZXJuYW1lIjoiMTU4MTk3NDk1NTIiLCJleHAiOjE3NDA5MjI0NDMsImVtYWlsIjpudWxsfQ.0SCsgCElhQojDx3IdVwY5x4A9LFsoDYsfJUcO7z292A"}
INFO     log:conftest.py:17 开始执行用例
INFO     log:requests.py:12 接口地址>>>>>:http://admin.5istudy.online/goods/
INFO     log:requests.py:14 接口参数>>>>>:{'goods': 55}
INFO     log:request_untils.py:9 接口返回内容>>>:{"count": 78, "next": "http://admin.5istudy.online/goods/?goods=55&page=2", "previous": null, "results": [{"id": 1, "category": {"id": 20, "sub_cat": [], "add_time": "2019-11-19 13:21:56", "name": "根茎类", "code": "gjl", "desc": "", "category_type": 2, "is_tab": false, "parent_category": 1}, "images": [{"image": "http://admin.5istudy.online/media/goods/images/1_P_1449024889889.jpg"}, {"image": "http://admin.5istudy.online/media/1.png"}, {"image": "http://admin.5istudy.online/media/goods/images/1_P_1449024889287.jpg"}], "add_time": "2019-11-19 13:22:00", "goods_sn": "2222", "name": "新鲜水果甜香脆单果约800克222", "click_num": 0, "sold_num": 19, "fav_num": 0, "goods_num": -9, "market_price": 232.0, "shop_price": 156.0, "goods_brief": "食用百香果可以增加胃部饱腹感，减少余热量的摄入，还可以吸附胆固醇和胆汁之类有机分子，抑制人体对脂肪的吸收。因此，长期食用有利于改善人体营养吸收结构，降低体内脂肪，塑造健康优美体态。", "goods_desc": "<p><img src=\"http://admin.5istudy.online/media/goods/images/2_20170719161405_249.jpg\" title=\"\" alt=\"2.jpg\"/></p><p><img \r\nsrc=\"http://admin.5istudy.online/media/goods/images/2_20170719161414_628.jpg\" title=\"\" alt=\"2.jpg\"/></p><p><img \r\nsrc=\"http://admin.5istudy.online/media/goods/images/2_20170719161414_628.jpg\" title=\"\" alt=\"2.jpg\"/></p><p><img", "ship_free": false, "goods_front_image": "http://admin.5istudy.online/media/goods/images/1_P_1449024889889.jpg", "is_new": false, "is_hot": false}, {"id": 2, "category": {"id": 7, "sub_cat": [{"id": 8, "sub_cat": [], "add_time": "2019-11-19 13:21:56", "name": "参鲍", "code": "cb", "desc": "", "category_type": 3, "is_tab": false, "parent_category": 7}, {"id": 9, "sub_cat": [], "add_time": "2019-11-19 13:21:56", "name": "鱼", "code": "yu", "desc": "", "category_type": 3, "is_tab": false, "parent_category": 7}, {"id": 10, "sub_cat": [], "add_time": "2019-11-19 13:21:56", "name": "虾", "code": "xia", "desc": "", "category_type": 3, "is_tab": false, "parent_category": 7}, {"id": 11, "sub_cat": [], "add_time": "2019-11-19 13:21:56", "name": "蟹/贝", "code": "xb", "desc": "", "category_type": 3, "is_tab": false, "parent_category": 7}], "add_time": "2019-11-19 13:21:00", "name": "海鲜水产", "code": "hxsc", "desc": "gio", "category_type": 2, "is_tab": true, "parent_category": 1}, "images": [{"image": "http://admin.5istudy.online/media/goods/images/2_P_1448945810202.jpg"}, {"image": "http://admin.5istudy.online/media/src.jpg"}, {"image": "http://admin.5istudy.online/media/src_z27kdQ4.jpg"}], "add_time": "2019-11-19 13:22:00", "goods_sn": "124546", "name": "田然牛肉大黄瓜条生鲜牛肉冷冻真空黄牛", "click_num": 0, "sold_num": 16, "fav_num": 0, "goods_num": -16, "market_price": 106.0, "shop_price": 88.0, "goods_brief": "前腿+后腿+羊排共8斤，原生态大山放牧羊羔，曾经的皇室贡品，央视推荐，2005年北京招待全球财金首脑。五层专用包装箱+真空包装+冰袋+保鲜箱+顺丰冷链发货，路途保质期8天", "goods_desc": "<p><img src=\"/media/goods/images/2_20170719161405_249.jpg\" title=\"\" alt=\"2.jpg\"/></p><p><img src=\"/media/goods/images/2_20170719161414_628.jpg\" title=\"\" alt=\"2.jpg\"/></p><p><img src=\"/media/goods/images/2_20170719161435_381.jpg\" title=\"\" alt=\"2.jpg\"/></p>", "ship_free": false, "goods_front_image": "http://admin.5istudy.online/media/goods/images/2_P_1448945810202.jpg", "is_new": false, "is_hot": false}, {"id": 3, "category": {"id": 15, "sub_cat": [{"id": 16, "sub_cat": [], "add_time": "2019-11-19 13:21:56", "name": "生菜", "code": "sc", "desc": "", "category_type": 3, "is_tab": false, "parent_category": 15}, {"id": 17, "sub_cat": [], "add_time": "2019-11-19 13:21:56", "name": "菠", "code": "bc", "desc": "", "category_type": 3, "is_tab": false, "parent_category": 15}, {"id": 18, "sub_cat": [], "add_time": "2019-11-19 13:21:56", "name": "圆椒", "code": "yj", "desc": "", "category_type": 3, "is_tab": false, "parent_category": 15}, {"id": 19, "sub_cat": [], "add_time": "2019-11-19 13:21:56", "name": "西兰花", "code": "xlh", "desc": "", "category_type": 3, "is_tab": false, "parent_category": 15}], "add_time": "2019-11-19 13:21:56", "name": "叶菜类", "code": "ycl", "desc": "", "category_type": 2, "is_tab": false, "parent_category": 1}, "images": [{"image": "http://admin.5istudy.online/media/goods/images/7_P_1448945104883.jpg"}, {"image": "http://admin.5istudy.online/media/goods/images/7_P_1448945104734.jpg"}], "add_time": "2019-11-19 13:22:00", "goods_sn": "351", "name": "酣畅家庭菲力牛排10片澳洲生鲜牛肉团购套餐", "click_num": 0, "sold_num": 12, "fav_num": 0, "goods_num": 4, "market_price": 286.0, "shop_price": 238.0, "goods_brief": "一般", "goods_desc": "<p><img src=\"http://admin.5istudy.online/media/goods/images/2_20170719161405_249.jpg\" title=\"\" alt=\"2.jpg\"/></p><p><img src=\"http://admin.5istudy.online/media/goods/images/2_20170719161414_628.jpg\" title=\"\" alt=\"2.jpg\"/></p><p><img src=\"http://admin.5istudy.online/media/goods/images/2_20170719161435_381.jpg\" title=\"\" alt=\"2.jpg\"/></p>", "ship_free": true, "goods_front_image": "http://admin.5istudy.online/media/goods/images/7_P_1448945104883.jpg", "is_new": true, "is_hot": true}, {"id": 4, "category": {"id": 20, "sub_cat": [], "add_time": "2019-11-19 13:21:56", "name": "根茎类", "code": "gjl", "desc": "", "category_type": 2, "is_tab": false, "parent_category": 1}, "images": [{"image": "http://admin.5istudy.online/media/goods/images/47_P_1448946213263.jpg"}, {"image": "http://admin.5istudy.online/media/goods/images/47_P_1448946213157.jpg"}], "add_time": "2019-11-19 13:22:00", "goods_sn": "1224", "name": "新鲜水果甜蜜香脆单果约800克222", "click_num": 0, "sold_num": 0, "fav_num": 0, "goods_num": 0, "market_price": 156.0, "shop_price": 108.0, "goods_brief": "shanbei", "goods_desc": "<p><img src=\"http://admin.5istudy.online/media/goods/images/2_20170719161405_249.jpg\" title=\"\" alt=\"2.jpg\"/></p><p><img src=\"/media/goods/images/2_20170719161414_628.jpg\" title=\"\" alt=\"2.jpg\"/></p><p><img src=\"/media/goods/images/2_20170719161435_381.jpg\" title=\"\" alt=\"2.jpg\"/></p>", "ship_free": true, "goods_front_image": "http://admin.5istudy.online/media/goods/images/47_P_1448946213263.jpg", "is_new": false, "is_hot": false}, {"id": 5, "category": {"id": 7, "sub_cat": [{"id": 8, "sub_cat": [], "add_time": "2019-11-19 13:21:56", "name": "参鲍", "code": "cb", "desc": "", "category_type": 3, "is_tab": false, "parent_category": 7}, {"id": 9, "sub_cat": [], "add_time": "2019-11-19 13:21:56", "name": "鱼", "code": "yu", "desc": "", "category_type": 3, "is_tab": false, "parent_category": 7}, {"id": 10, "sub_cat": [], "add_time": "2019-11-19 13:21:56", "name": "虾", "code": "xia", "desc": "", "category_type": 3, "is_tab": false, "parent_category": 7}, {"id": 11, "sub_cat": [], "add_time": "2019-11-19 13:21:56", "name": "蟹/贝", "code": "xb", "desc": "", "category_type": 3, "is_tab": false, "parent_category": 7}], "add_time": "2019-11-19 13:21:00", "name": "海鲜水产", "code": "hxsc", "desc": "gio", "category_type": 2, "is_tab": true, "parent_category": 1}, "images": [{"image": "http://admin.5istudy.online/media/goods/images/10_P_1448944572085.jpg"}, {"image": "http://admin.5istudy.online/media/goods/images/10_P_1448944572532.jpg"}, {"image": "http://admin.5istudy.online/media/goods/images/10_P_1448944572872.jpg"}], "add_time": "2019-11-19 13:22:09", "goods_sn": "NULL", "name": "内蒙新鲜牛肉1斤清真生鲜牛肉火锅食材", "click_num": 0, "sold_num": 3, "fav_num": 0, "goods_num": -3, "market_price": 106.0, "shop_price": 88.0, "goods_brief": "null", "goods_desc": "<p><img src=\"/media/goods/images/2_20170719161405_249.jpg\" title=\"\" alt=\"2.jpg\"/></p><p><img src=\"/media/goods/images/2_20170719161414_628.jpg\" title=\"\" alt=\"2.jpg\"/></p><p><img src=\"/media/goods/images/2_20170719161435_381.jpg\" title=\"\" alt=\"2.jpg\"/></p>", "ship_free": true, "goods_front_image": "http://admin.5istudy.online/media/goods/images/10_P_1448944572085.jpg", "is_new": false, "is_hot": false}, {"id": 6, "category": {"id": 21, "sub_cat": [], "add_time": "2019-11-19 13:21:56", "name": "茄果类", "code": "qgl", "desc": "", "category_type": 2, "is_tab": false, "parent_category": 1}, "images": [{"image": "http://admin.5istudy.online/media/goods/images/4_P_1448945381985.jpg"}, {"image": "http://admin.5istudy.online/media/goods/images/4_P_1448945381013.jpg"}], "add_time": "2019-11-19 13:22:09", "goods_sn": "", "name": "乌拉圭进口牛肉卷特级肥牛卷", "click_num": 0, "sold_num": 16, "fav_num": 0, "goods_num": 5000, "market_price": 90.0, "shop_price": 75.0, "goods_brief": "NULL", "goods_desc": "<p><img src=\"/media/goods/images/2_20170719161405_249.jpg\" title=\"\" alt=\"2.jpg\"/></p><p><img src=\"/media/goods/images/2_20170719161414_628.jpg\" title=\"\" alt=\"2.jpg\"/></p><p><img src=\"/media/goods/images/2_20170719161435_381.jpg\" title=\"\" alt=\"2.jpg\"/></p>", "ship_free": true, "goods_front_image": "http://admin.5istudy.online/media/goods/images/4_P_1448945381985.jpg", "is_new": false, "is_hot": false}, {"id": 7, "category": {"id": 23, "sub_cat": [], "add_time": "2019-11-19 13:21:56", "name": "进口生鲜", "code": "jksx", "desc": "", "category_type": 2, "is_tab": false, "parent_category": 1}, "images": [{"image": "http://admin.5istudy.online/media/goods/images/8_P_1448945032810.jpg"}, {"image": "http://admin.5istudy.online/media/goods/images/8_P_1448945032646.jpg"}], "add_time": "2019-11-19 13:22:00", "goods_sn": "77777", "name": "五星眼肉牛排套餐8片装原味原切生鲜牛肉", "click_num": 0, "sold_num": 6, "fav_num": 0, "goods_num": -6, "market_price": 150.0, "shop_price": 0.01, "goods_brief": "简单", "goods_desc": "<p><img src=\"/media/goods/images/2_20170719161405_249.jpg\" title=\"\" alt=\"2.jpg\"/></p><p><img src=\"/media/goods/images/2_20170719161414_628.jpg\" title=\"\" alt=\"2.jpg\"/></p><p><img src=\"/media/goods/images/2_20170719161435_381.jpg\" title=\"\" alt=\"2.jpg\"/></p>", "ship_free": true, "goods_front_image": "http://admin.5istudy.online/media/goods/images/8_P_1448945032810.jpg", "is_new": true, "is_hot": false}, {"id": 8, "category": {"id": 7, "sub_cat": [{"id": 8, "sub_cat": [], "add_time": "2019-11-19 13:21:56", "name": "参鲍", "code": "cb", "desc": "", "category_type": 3, "is_tab": false, "parent_category": 7}, {"id": 9, "sub_cat": [], "add_time": "2019-11-19 13:21:56", "name": "鱼", "code": "yu", "desc": "", "category_type": 3, "is_tab": false, "parent_category": 7}, {"id": 10, "sub_cat": [], "add_time": "2019-11-19 13:21:56", "name": "虾", "code": "xia", "desc": "", "category_type": 3, "is_tab": false, "parent_category": 7}, {"id": 11, "sub_cat": [], "add_time": "2019-11-19 13:21:56", "name": "蟹/贝", "code": "xb", "desc": "", "category_type": 3, "is_tab": false, "parent_category": 7}], "add_time": "2019-11-19 13:21:00", "name": "海鲜水产", "code": "hxsc", "desc": "gio", "category_type": 2, "is_tab": true, "parent_category": 1}, "images": [{"image": "http://admin.5istudy.online/media/goods/images/11_P_1448944388277.jpg"}, {"image": "http://admin.5istudy.online/media/goods/images/11_P_1448944388034.jpg"}, {"image": "http://admin.5istudy.online/media/goods/images/11_P_1448944388201.jpg"}], "add_time": "2019-11-19 13:22:09", "goods_sn": "null", "name": "澳洲进口120天谷饲牛仔骨4份原味生鲜", "click_num": 0, "sold_num": 0, "fav_num": 0, "goods_num": 0, "market_price": 31.0, "shop_price": 26.0, "goods_brief": "", "goods_desc": "<p><img src=\"/media/goods/images/2_20170719161405_249.jpg\" title=\"\" alt=\"2.jpg\"/></p><p><img src=\"/media/goods/images/2_20170719161414_628.jpg\" title=\"\" alt=\"2.jpg\"/></p><p><img src=\"/media/goods/images/2_20170719161435_381.jpg\" title=\"\" alt=\"2.jpg\"/></p>", "ship_free": true, "goods_front_image": "http://admin.5istudy.online/media/goods/images/11_P_1448944388277.jpg", "is_new": false, "is_hot": false}, {"id": 9, "category": {"id": 22, "sub_cat": [], "add_time": "2019-11-19 13:21:56", "name": "菌菇类", "code": "jgl", "desc": "", "category_type": 2, "is_tab": false, "parent_category": 1}, "images": [{"image": "http://admin.5istudy.online/media/goods/images/6_P_1448945167279.jpg"}, {"image": "http://admin.5istudy.online/media/goods/images/6_P_1448945167015.jpg"}], "add_time": "2019-11-19 13:22:00", "goods_sn": "74645422", "name": "潮香村澳洲进口牛排家庭团购套餐20片", "click_num": 0, "sold_num": 2, "fav_num": 0, "goods_num": -2, "market_price": 239.0, "shop_price": 199.0, "goods_brief": "潮香村澳洲进口牛排家庭团购套餐20片", "goods_desc": "<p><img src=\" http://admin.5istudy.online/media/goods/images/2_20170719161405_249.jpg\" title=\"\" alt=\"2.jpg\"/></p><p><img src=\" http://admin.5istudy.online/media/goods/images/2_20170719161414_628.jpg\" title=\"\" alt=\"2.jpg\"/></p><p><img src=\" http://admin.5istudy.online/media/goods/images/2_20170719161435_381.jpg\" title=\"\" alt=\"2.jpg\"/></p>", "ship_free": true, "goods_front_image": "http://admin.5istudy.online/media/goods/images/6_P_1448945167279.jpg", "is_new": true, "is_hot": true}, {"id": 10, "category": {"id": 20, "sub_cat": [], "add_time": "2019-11-19 13:21:56", "name": "根茎类", "code": "gjl", "desc": "", "category_type": 2, "is_tab": false, "parent_category": 1}, "images": [{"image": "http://admin.5istudy.online/media/goods/images/9_P_1448944791617.jpg"}, {"image": "http://admin.5istudy.online/media/goods/images/9_P_1448944791129.jpg"}, {"image": "http://admin.5istudy.online/media/goods/images/9_P_1448944791077.jpg"}, {"image": "http://admin.5istudy.online/media/goods/images/9_P_1448944791229.jpg"}], "add_time": "2019-11-19 13:22:09", "goods_sn": "", "name": "新鲜水果甜蜜香脆单果约800克222", "click_num": 0, "sold_num": 1, "fav_num": 0, "goods_num": -1, "market_price": 202.0, "shop_price": 168.0, "goods_brief": "", "goods_desc": "<p><img src=\"/media/goods/images/2_20170719161405_249.jpg\" title=\"\" alt=\"2.jpg\"/></p><p><img src=\"/media/goods/images/2_20170719161414_628.jpg\" title=\"\" alt=\"2.jpg\"/></p><p><img src=\"/media/goods/images/2_20170719161435_381.jpg\" title=\"\" alt=\"2.jpg\"/></p>", "ship_free": true, "goods_front_image": "http://admin.5istudy.online/media/goods/images/9_P_1448944791617.jpg", "is_new": false, "is_hot": false}, {"id": 11, "category": {"id": 2, "sub_cat": [{"id": 2, "sub_cat": [{"id": 2, "add_time": "2019-11-19 13:21:56", "name": "精品肉类", "code": "jprl", "desc": "", "category_type": 2, "is_tab": false, "parent_category": 2}, {"id": 3, "add_time": "2019-11-19 13:21:56", "name": "羊肉", "code": "yr", "desc": "", "category_type": 3, "is_tab": false, "parent_category": 2}, {"id": 5, "add_time": "2019-11-19 13:21:56", "name": "猪肉", "code": "zr", "desc": "", "category_type": 3, "is_tab": false, "parent_category": 2}, {"id": 6, "add_time": "2019-11-19 13:21:56", "name": "牛肉", "code": "nr", "desc": "", "category_type": 3, "is_tab": false, "parent_category": 2}], "add_time": "2019-11-19 13:21:56", "name": "精品肉类", "code": "jprl", "desc": "", "category_type": 2, "is_tab": false, "parent_category": 2}, {"id": 3, "sub_cat": [], "add_time": "2019-11-19 13:21:56", "name": "羊肉", "code": "yr", "desc": "", "category_type": 3, "is_tab": false, "parent_category": 2}, {"id": 5, "sub_cat": [{"id": 4, "add_time": "2019-11-19 13:21:56", "name": "禽类", "code": "ql", "desc": "", "category_type": 3, "is_tab": false, "parent_category": 5}], "add_time": "2019-11-19 13:21:56", "name": "猪肉", "code": "zr", "desc": "", "category_type": 3, "is_tab": false, "parent_category": 2}, {"id": 6, "sub_cat": [], "add_time": "2019-11-19 13:21:56", "name": "牛肉", "code": "nr", "desc": "", "category_type": 3, "is_tab": false, "parent_category": 2}], "add_time": "2019-11-19 13:21:56", "name": "精品肉类", "code": "jprl", "desc": "", "category_type": 2, "is_tab": false, "parent_category": 2}, "images": [{"image": "http://admin.5istudy.online/media/goods/images/3_P_1448945490837.jpg"}, {"image": "http://admin.5istudy.online/media/goods/images/3_P_1448945490084.jpg"}], "add_time": "2019-11-19 13:22:09", "goods_sn": "", "name": "澳洲进口牛尾巴300g新鲜肥牛肉", "click_num": 0, "sold_num": 1, "fav_num": 0, "goods_num": -1, "market_price": 306.0, "shop_price": 255.0, "goods_brief": "新鲜羊羔肉整只共15斤，原生态大山放牧羊羔，曾经的皇室贡品，央视推荐，2005年北京招待全球财金首脑。五层专用包装箱+真空包装+冰袋+保鲜箱+顺丰冷链发货，路途保质期8天", "goods_desc": "<p><img src=\"/media/goods/images/2_20170719161405_249.jpg\" title=\"\" alt=\"2.jpg\"/></p><p><img src=\"/media/goods/images/2_20170719161414_628.jpg\" title=\"\" alt=\"2.jpg\"/></p><p><img src=\"/media/goods/images/2_20170719161435_381.jpg\" title=\"\" alt=\"2.jpg\"/></p>", "ship_free": true, "goods_front_image": "http://admin.5istudy.online/media/goods/images/3_P_1448945490837.jpg", "is_new": false, "is_hot": true}, {"id": 12, "category": {"id": 7, "sub_cat": [{"id": 8, "sub_cat": [], "add_time": "2019-11-19 13:21:56", "name": "参鲍", "code": "cb", "desc": "", "category_type": 3, "is_tab": false, "parent_category": 7}, {"id": 9, "sub_cat": [], "add_time": "2019-11-19 13:21:56", "name": "鱼", "code": "yu", "desc": "", "category_type": 3, "is_tab": false, "parent_category": 7}, {"id": 10, "sub_cat": [], "add_time": "2019-11-19 13:21:56", "name": "虾", "code": "xia", "desc": "", "category_type": 3, "is_tab": false, "parent_category": 7}, {"id": 11, "sub_cat": [], "add_time": "2019-11-19 13:21:56", "name": "蟹/贝", "code": "xb", "desc": "", "category_type": 3, "is_tab": false, "parent_category": 7}], "add_time": "2019-11-19 13:21:00", "name": "海鲜水产", "code": "hxsc", "desc": "gio", "category_type": 2, "is_tab": true, "parent_category": 1}, "images": [{"image": "http://admin.5istudy.online/media/goods/images/48_P_1448943988970.jpg"}, {"image": "http://admin.5istudy.online/media/goods/images/48_P_1448943988898.jpg"}, {"image": "http://admin.5istudy.online/media/goods/images/48_P_1448943988439.jpg"}], "add_time": "2019-11-19 13:22:09", "goods_sn": "", "name": "新疆巴尔鲁克生鲜牛排眼肉牛扒1200g", "click_num": 0, "sold_num": 0, "fav_num": 0, "goods_num": 0, "market_price": 126.0, "shop_price": 88.0, "goods_brief": "", "goods_desc": "<p><img src=\"/media/goods/images/2_20170719161405_249.jpg\" title=\"\" alt=\"2.jpg\"/></p><p><img src=\"/media/goods/images/2_20170719161414_628.jpg\" title=\"\" alt=\"2.jpg\"/></p><p><img src=\"/media/goods/images/2_20170719161435_381.jpg\" title=\"\" alt=\"2.jpg\"/></p>", "ship_free": true, "goods_front_image": "http://admin.5istudy.online/media/goods/images/48_P_1448943988970.jpg", "is_new": false, "is_hot": false}]}
INFO     log:conftest.py:19 执行完毕~